\contentsline {chapter}{\numberline {1}File Index}{1}{chapter.1}
\contentsline {section}{\numberline {1.1}File List}{1}{section.1.1}
\contentsline {chapter}{\numberline {2}File Documentation}{3}{chapter.2}
\contentsline {section}{\numberline {2.1}f1.\discretionary {\unhbox \voidb@x \hbox {\relax \fontsize {7}{8}\selectfont $\leftarrow \joinrel \rhook $}}{}{}c File Reference}{3}{section.2.1}
\contentsline {subsection}{\numberline {2.1.1}Function Documentation}{3}{subsection.2.1.1}
\contentsline {subsubsection}{\numberline {2.1.1.1}f1()}{3}{subsubsection.2.1.1.1}
\contentsline {section}{\numberline {2.2}f2.\discretionary {\unhbox \voidb@x \hbox {\relax \fontsize {7}{8}\selectfont $\leftarrow \joinrel \rhook $}}{}{}c File Reference}{4}{section.2.2}
\contentsline {subsection}{\numberline {2.2.1}Function Documentation}{4}{subsection.2.2.1}
\contentsline {subsubsection}{\numberline {2.2.1.1}f2()}{4}{subsubsection.2.2.1.1}
\contentsline {section}{\numberline {2.3}f3.\discretionary {\unhbox \voidb@x \hbox {\relax \fontsize {7}{8}\selectfont $\leftarrow \joinrel \rhook $}}{}{}c File Reference}{4}{section.2.3}
\contentsline {subsection}{\numberline {2.3.1}Function Documentation}{4}{subsection.2.3.1}
\contentsline {subsubsection}{\numberline {2.3.1.1}f3()}{5}{subsubsection.2.3.1.1}
\contentsline {section}{\numberline {2.4}f4.\discretionary {\unhbox \voidb@x \hbox {\relax \fontsize {7}{8}\selectfont $\leftarrow \joinrel \rhook $}}{}{}c File Reference}{5}{section.2.4}
\contentsline {subsection}{\numberline {2.4.1}Function Documentation}{5}{subsection.2.4.1}
\contentsline {subsubsection}{\numberline {2.4.1.1}f4()}{5}{subsubsection.2.4.1.1}
\contentsline {section}{\numberline {2.5}header.\discretionary {\unhbox \voidb@x \hbox {\relax \fontsize {7}{8}\selectfont $\leftarrow \joinrel \rhook $}}{}{}h File Reference}{6}{section.2.5}
\contentsline {subsection}{\numberline {2.5.1}Function Documentation}{6}{subsection.2.5.1}
\contentsline {subsubsection}{\numberline {2.5.1.1}f1()}{6}{subsubsection.2.5.1.1}
\contentsline {subsubsection}{\numberline {2.5.1.2}f2()}{6}{subsubsection.2.5.1.2}
\contentsline {subsubsection}{\numberline {2.5.1.3}f4()}{7}{subsubsection.2.5.1.3}
\contentsline {subsubsection}{\numberline {2.5.1.4}sen()}{7}{subsubsection.2.5.1.4}
\contentsline {section}{\numberline {2.6}main.\discretionary {\unhbox \voidb@x \hbox {\relax \fontsize {7}{8}\selectfont $\leftarrow \joinrel \rhook $}}{}{}c File Reference}{7}{section.2.6}
\contentsline {subsection}{\numberline {2.6.1}Function Documentation}{7}{subsection.2.6.1}
\contentsline {subsubsection}{\numberline {2.6.1.1}main()}{8}{subsubsection.2.6.1.1}
\contentsline {section}{\numberline {2.7}sen.\discretionary {\unhbox \voidb@x \hbox {\relax \fontsize {7}{8}\selectfont $\leftarrow \joinrel \rhook $}}{}{}c File Reference}{8}{section.2.7}
\contentsline {subsection}{\numberline {2.7.1}Function Documentation}{8}{subsection.2.7.1}
\contentsline {subsubsection}{\numberline {2.7.1.1}sen()}{8}{subsubsection.2.7.1.1}
\contentsline {chapter}{Index}{9}{section*.9}
