\relax 
\providecommand\hyper@newdestlabel[2]{}
\providecommand\HyperFirstAtBeginDocument{\AtBeginDocument}
\HyperFirstAtBeginDocument{\ifx\hyper@anchor\@undefined
\global\let\oldcontentsline\contentsline
\gdef\contentsline#1#2#3#4{\oldcontentsline{#1}{#2}{#3}}
\global\let\oldnewlabel\newlabel
\gdef\newlabel#1#2{\newlabelxx{#1}#2}
\gdef\newlabelxx#1#2#3#4#5#6{\oldnewlabel{#1}{{#2}{#3}}}
\AtEndDocument{\ifx\hyper@anchor\@undefined
\let\contentsline\oldcontentsline
\let\newlabel\oldnewlabel
\fi}
\fi}
\global\let\hyper@last\relax 
\gdef\HyperFirstAtBeginDocument#1{#1}
\providecommand\HyField@AuxAddToFields[1]{}
\providecommand\HyField@AuxAddToCoFields[2]{}
\providecommand \oddpage@label [2]{}
\@writefile{toc}{\contentsline {chapter}{\numberline {1}File Index}{1}{chapter.1}}
\@writefile{lof}{\addvspace {10\p@ }}
\@writefile{lot}{\addvspace {10\p@ }}
\@writefile{toc}{\contentsline {section}{\numberline {1.1}File List}{1}{section.1.1}}
\@writefile{toc}{\contentsline {chapter}{\numberline {2}File Documentation}{3}{chapter.2}}
\@writefile{lof}{\addvspace {10\p@ }}
\@writefile{lot}{\addvspace {10\p@ }}
\@writefile{toc}{\contentsline {section}{\numberline {2.1}f1.\discretionary {\unhbox \voidb@x \hbox {\relax \fontsize  {7}{8}\selectfont  $\leftarrow \joinrel  \rhook $}}{}{}c File Reference}{3}{section.2.1}}
\newlabel{f1_8c}{{2.1}{3}{f1.\+c File Reference}{section.2.1}{}}
\@writefile{toc}{\contentsline {subsection}{\numberline {2.1.1}Function Documentation}{3}{subsection.2.1.1}}
\newlabel{f1_8c_ac2eb7e5c7b3c6eea6dc3e2f2aed40d40}{{2.1.1}{3}{Function Documentation}{subsection.2.1.1}{}}
\@writefile{toc}{\contentsline {subsubsection}{\numberline {2.1.1.1}f1()}{3}{subsubsection.2.1.1.1}}
\@writefile{toc}{\contentsline {section}{\numberline {2.2}f2.\discretionary {\unhbox \voidb@x \hbox {\relax \fontsize  {7}{8}\selectfont  $\leftarrow \joinrel  \rhook $}}{}{}c File Reference}{4}{section.2.2}}
\newlabel{f2_8c}{{2.2}{4}{f2.\+c File Reference}{section.2.2}{}}
\@writefile{toc}{\contentsline {subsection}{\numberline {2.2.1}Function Documentation}{4}{subsection.2.2.1}}
\newlabel{f2_8c_aab3440f3ec822d85bcf8990103095762}{{2.2.1}{4}{Function Documentation}{subsection.2.2.1}{}}
\@writefile{toc}{\contentsline {subsubsection}{\numberline {2.2.1.1}f2()}{4}{subsubsection.2.2.1.1}}
\@writefile{toc}{\contentsline {section}{\numberline {2.3}f3.\discretionary {\unhbox \voidb@x \hbox {\relax \fontsize  {7}{8}\selectfont  $\leftarrow \joinrel  \rhook $}}{}{}c File Reference}{4}{section.2.3}}
\newlabel{f3_8c}{{2.3}{4}{f3.\+c File Reference}{section.2.3}{}}
\@writefile{toc}{\contentsline {subsection}{\numberline {2.3.1}Function Documentation}{4}{subsection.2.3.1}}
\newlabel{f3_8c_aecf76c5aaaa6fbd3fc09122e97ec46de}{{2.3.1}{4}{Function Documentation}{subsection.2.3.1}{}}
\@writefile{toc}{\contentsline {subsubsection}{\numberline {2.3.1.1}f3()}{5}{subsubsection.2.3.1.1}}
\@writefile{toc}{\contentsline {section}{\numberline {2.4}f4.\discretionary {\unhbox \voidb@x \hbox {\relax \fontsize  {7}{8}\selectfont  $\leftarrow \joinrel  \rhook $}}{}{}c File Reference}{5}{section.2.4}}
\newlabel{f4_8c}{{2.4}{5}{f4.\+c File Reference}{section.2.4}{}}
\@writefile{toc}{\contentsline {subsection}{\numberline {2.4.1}Function Documentation}{5}{subsection.2.4.1}}
\newlabel{f4_8c_a22c6c214d1259f7032b12ff2cde8c2bc}{{2.4.1}{5}{Function Documentation}{subsection.2.4.1}{}}
\@writefile{toc}{\contentsline {subsubsection}{\numberline {2.4.1.1}f4()}{5}{subsubsection.2.4.1.1}}
\@writefile{toc}{\contentsline {section}{\numberline {2.5}header.\discretionary {\unhbox \voidb@x \hbox {\relax \fontsize  {7}{8}\selectfont  $\leftarrow \joinrel  \rhook $}}{}{}h File Reference}{6}{section.2.5}}
\newlabel{header_8h}{{2.5}{6}{header.\+h File Reference}{section.2.5}{}}
\@writefile{toc}{\contentsline {subsection}{\numberline {2.5.1}Function Documentation}{6}{subsection.2.5.1}}
\newlabel{header_8h_a230c320c2fdc5e2b9920ef2958fba304}{{2.5.1}{6}{Function Documentation}{subsection.2.5.1}{}}
\@writefile{toc}{\contentsline {subsubsection}{\numberline {2.5.1.1}f1()}{6}{subsubsection.2.5.1.1}}
\newlabel{header_8h_a53485209a1b60e3187eacee931289d6c}{{2.5.1.1}{6}{\texorpdfstring {f1()}{f1()}}{subsubsection.2.5.1.1}{}}
\@writefile{toc}{\contentsline {subsubsection}{\numberline {2.5.1.2}f2()}{6}{subsubsection.2.5.1.2}}
\newlabel{header_8h_a83e69eb6d901b44882ca6452f217dcd5}{{2.5.1.2}{6}{\texorpdfstring {f2()}{f2()}}{subsubsection.2.5.1.2}{}}
\@writefile{toc}{\contentsline {subsubsection}{\numberline {2.5.1.3}f4()}{7}{subsubsection.2.5.1.3}}
\newlabel{header_8h_a2cd7856a9242cda47fb0a06c682376ab}{{2.5.1.3}{7}{\texorpdfstring {f4()}{f4()}}{subsubsection.2.5.1.3}{}}
\@writefile{toc}{\contentsline {subsubsection}{\numberline {2.5.1.4}sen()}{7}{subsubsection.2.5.1.4}}
\@writefile{toc}{\contentsline {section}{\numberline {2.6}main.\discretionary {\unhbox \voidb@x \hbox {\relax \fontsize  {7}{8}\selectfont  $\leftarrow \joinrel  \rhook $}}{}{}c File Reference}{7}{section.2.6}}
\newlabel{main_8c}{{2.6}{7}{main.\+c File Reference}{section.2.6}{}}
\@writefile{toc}{\contentsline {subsection}{\numberline {2.6.1}Function Documentation}{7}{subsection.2.6.1}}
\newlabel{main_8c_ae66f6b31b5ad750f1fe042a706a4e3d4}{{2.6.1}{7}{Function Documentation}{subsection.2.6.1}{}}
\@writefile{toc}{\contentsline {subsubsection}{\numberline {2.6.1.1}main()}{8}{subsubsection.2.6.1.1}}
\@writefile{toc}{\contentsline {section}{\numberline {2.7}sen.\discretionary {\unhbox \voidb@x \hbox {\relax \fontsize  {7}{8}\selectfont  $\leftarrow \joinrel  \rhook $}}{}{}c File Reference}{8}{section.2.7}}
\newlabel{sen_8c}{{2.7}{8}{sen.\+c File Reference}{section.2.7}{}}
\@writefile{toc}{\contentsline {subsection}{\numberline {2.7.1}Function Documentation}{8}{subsection.2.7.1}}
\newlabel{sen_8c_a05970c0579e340bf7a4f6038bf1ca4da}{{2.7.1}{8}{Function Documentation}{subsection.2.7.1}{}}
\@writefile{toc}{\contentsline {subsubsection}{\numberline {2.7.1.1}sen()}{8}{subsubsection.2.7.1.1}}
\@writefile{toc}{\contentsline {chapter}{Index}{9}{section*.9}}
