\relax 
\providecommand\hyper@newdestlabel[2]{}
\providecommand\HyperFirstAtBeginDocument{\AtBeginDocument}
\HyperFirstAtBeginDocument{\ifx\hyper@anchor\@undefined
\global\let\oldcontentsline\contentsline
\gdef\contentsline#1#2#3#4{\oldcontentsline{#1}{#2}{#3}}
\global\let\oldnewlabel\newlabel
\gdef\newlabel#1#2{\newlabelxx{#1}#2}
\gdef\newlabelxx#1#2#3#4#5#6{\oldnewlabel{#1}{{#2}{#3}}}
\AtEndDocument{\ifx\hyper@anchor\@undefined
\let\contentsline\oldcontentsline
\let\newlabel\oldnewlabel
\fi}
\fi}
\global\let\hyper@last\relax 
\gdef\HyperFirstAtBeginDocument#1{#1}
\providecommand\HyField@AuxAddToFields[1]{}
\providecommand\HyField@AuxAddToCoFields[2]{}
\providecommand \oddpage@label [2]{}
\@writefile{toc}{\contentsline {chapter}{\numberline {1}File Index}{1}{chapter.1}}
\@writefile{lof}{\addvspace {10\p@ }}
\@writefile{lot}{\addvspace {10\p@ }}
\@writefile{toc}{\contentsline {section}{\numberline {1.1}File List}{1}{section.1.1}}
\@writefile{toc}{\contentsline {chapter}{\numberline {2}File Documentation}{3}{chapter.2}}
\@writefile{lof}{\addvspace {10\p@ }}
\@writefile{lot}{\addvspace {10\p@ }}
\@writefile{toc}{\contentsline {section}{\numberline {2.1}header.\discretionary {\unhbox \voidb@x \hbox {\relax \fontsize  {7}{8}\selectfont  $\leftarrow \joinrel  \rhook $}}{}{}h File Reference}{3}{section.2.1}}
\newlabel{header_8h}{{2.1}{3}{header.\+h File Reference}{section.2.1}{}}
\@writefile{toc}{\contentsline {subsection}{\numberline {2.1.1}Function Documentation}{3}{subsection.2.1.1}}
\newlabel{header_8h_a936957fc5fc3607193cec1578080ca3b}{{2.1.1}{3}{Function Documentation}{subsection.2.1.1}{}}
\@writefile{toc}{\contentsline {subsubsection}{\numberline {2.1.1.1}f1()}{3}{subsubsection.2.1.1.1}}
\newlabel{header_8h_a22fae39a0b1830ab6897a4094b60d793}{{2.1.1.1}{3}{\texorpdfstring {f1()}{f1()}}{subsubsection.2.1.1.1}{}}
\@writefile{toc}{\contentsline {subsubsection}{\numberline {2.1.1.2}f2()}{3}{subsubsection.2.1.1.2}}
\newlabel{header_8h_abe8875f1793d85cf81c7ccc37aa144d2}{{2.1.1.2}{3}{\texorpdfstring {f2()}{f2()}}{subsubsection.2.1.1.2}{}}
\@writefile{toc}{\contentsline {subsubsection}{\numberline {2.1.1.3}f3()}{4}{subsubsection.2.1.1.3}}
\newlabel{header_8h_a83e69eb6d901b44882ca6452f217dcd5}{{2.1.1.3}{4}{\texorpdfstring {f3()}{f3()}}{subsubsection.2.1.1.3}{}}
\@writefile{toc}{\contentsline {subsubsection}{\numberline {2.1.1.4}f4()}{4}{subsubsection.2.1.1.4}}
\@writefile{toc}{\contentsline {section}{\numberline {2.2}main.\discretionary {\unhbox \voidb@x \hbox {\relax \fontsize  {7}{8}\selectfont  $\leftarrow \joinrel  \rhook $}}{}{}c File Reference}{4}{section.2.2}}
\newlabel{main_8c}{{2.2}{4}{main.\+c File Reference}{section.2.2}{}}
\@writefile{toc}{\contentsline {subsection}{\numberline {2.2.1}Function Documentation}{4}{subsection.2.2.1}}
\newlabel{main_8c_a840291bc02cba5474a4cb46a9b9566fe}{{2.2.1}{4}{Function Documentation}{subsection.2.2.1}{}}
\@writefile{toc}{\contentsline {subsubsection}{\numberline {2.2.1.1}main()}{4}{subsubsection.2.2.1.1}}
\@writefile{toc}{\contentsline {chapter}{Index}{5}{section*.4}}
