\contentsline {chapter}{\numberline {1}File Index}{1}{chapter.1}
\contentsline {section}{\numberline {1.1}File List}{1}{section.1.1}
\contentsline {chapter}{\numberline {2}File Documentation}{3}{chapter.2}
\contentsline {section}{\numberline {2.1}header.\discretionary {\unhbox \voidb@x \hbox {\relax \fontsize {7}{8}\selectfont $\leftarrow \joinrel \rhook $}}{}{}h File Reference}{3}{section.2.1}
\contentsline {subsection}{\numberline {2.1.1}Function Documentation}{3}{subsection.2.1.1}
\contentsline {subsubsection}{\numberline {2.1.1.1}f1()}{3}{subsubsection.2.1.1.1}
\contentsline {subsubsection}{\numberline {2.1.1.2}f2()}{3}{subsubsection.2.1.1.2}
\contentsline {subsubsection}{\numberline {2.1.1.3}f3()}{4}{subsubsection.2.1.1.3}
\contentsline {subsubsection}{\numberline {2.1.1.4}f4()}{4}{subsubsection.2.1.1.4}
\contentsline {section}{\numberline {2.2}main.\discretionary {\unhbox \voidb@x \hbox {\relax \fontsize {7}{8}\selectfont $\leftarrow \joinrel \rhook $}}{}{}c File Reference}{4}{section.2.2}
\contentsline {subsection}{\numberline {2.2.1}Function Documentation}{4}{subsection.2.2.1}
\contentsline {subsubsection}{\numberline {2.2.1.1}main()}{4}{subsubsection.2.2.1.1}
\contentsline {chapter}{Index}{5}{section*.4}
