\contentsline {chapter}{\numberline {1}File Index}{1}{chapter.1}
\contentsline {section}{\numberline {1.1}File List}{1}{section.1.1}
\contentsline {chapter}{\numberline {2}File Documentation}{3}{chapter.2}
\contentsline {section}{\numberline {2.1}crear.\discretionary {\unhbox \voidb@x \hbox {\relax \fontsize {7}{8}\selectfont $\leftarrow \joinrel \rhook $}}{}{}c File Reference}{3}{section.2.1}
\contentsline {subsection}{\numberline {2.1.1}Function Documentation}{3}{subsection.2.1.1}
\contentsline {subsubsection}{\numberline {2.1.1.1}crear()}{3}{subsubsection.2.1.1.1}
\contentsline {section}{\numberline {2.2}ejemplo.\discretionary {\unhbox \voidb@x \hbox {\relax \fontsize {7}{8}\selectfont $\leftarrow \joinrel \rhook $}}{}{}c File Reference}{4}{section.2.2}
\contentsline {subsection}{\numberline {2.2.1}Function Documentation}{4}{subsection.2.2.1}
\contentsline {subsubsection}{\numberline {2.2.1.1}main()}{4}{subsubsection.2.2.1.1}
\contentsline {subsubsection}{\numberline {2.2.1.2}Print()}{5}{subsubsection.2.2.1.2}
\contentsline {subsubsection}{\numberline {2.2.1.3}Read()}{5}{subsubsection.2.2.1.3}
\contentsline {subsubsection}{\numberline {2.2.1.4}Transp()}{5}{subsubsection.2.2.1.4}
\contentsline {subsection}{\numberline {2.2.2}Variable Documentation}{5}{subsection.2.2.2}
\contentsline {subsubsection}{\numberline {2.2.2.1}mat}{5}{subsubsection.2.2.2.1}
\contentsline {section}{\numberline {2.3}limpiar.\discretionary {\unhbox \voidb@x \hbox {\relax \fontsize {7}{8}\selectfont $\leftarrow \joinrel \rhook $}}{}{}c File Reference}{6}{section.2.3}
\contentsline {subsection}{\numberline {2.3.1}Function Documentation}{6}{subsection.2.3.1}
\contentsline {subsubsection}{\numberline {2.3.1.1}limpiar()}{6}{subsubsection.2.3.1.1}
\contentsline {section}{\numberline {2.4}matriz.\discretionary {\unhbox \voidb@x \hbox {\relax \fontsize {7}{8}\selectfont $\leftarrow \joinrel \rhook $}}{}{}c File Reference}{6}{section.2.4}
\contentsline {subsection}{\numberline {2.4.1}Function Documentation}{7}{subsection.2.4.1}
\contentsline {subsubsection}{\numberline {2.4.1.1}main()}{7}{subsubsection.2.4.1.1}
\contentsline {section}{\numberline {2.5}matriz.\discretionary {\unhbox \voidb@x \hbox {\relax \fontsize {7}{8}\selectfont $\leftarrow \joinrel \rhook $}}{}{}h File Reference}{7}{section.2.5}
\contentsline {subsection}{\numberline {2.5.1}Function Documentation}{7}{subsection.2.5.1}
\contentsline {subsubsection}{\numberline {2.5.1.1}crear()}{8}{subsubsection.2.5.1.1}
\contentsline {subsubsection}{\numberline {2.5.1.2}limpiar()}{8}{subsubsection.2.5.1.2}
\contentsline {subsubsection}{\numberline {2.5.1.3}multi()}{9}{subsubsection.2.5.1.3}
\contentsline {subsubsection}{\numberline {2.5.1.4}multiesc()}{10}{subsubsection.2.5.1.4}
\contentsline {subsubsection}{\numberline {2.5.1.5}suma()}{11}{subsubsection.2.5.1.5}
\contentsline {subsubsection}{\numberline {2.5.1.6}sumaesc()}{12}{subsubsection.2.5.1.6}
\contentsline {subsubsection}{\numberline {2.5.1.7}transponer()}{13}{subsubsection.2.5.1.7}
\contentsline {section}{\numberline {2.6}multi.\discretionary {\unhbox \voidb@x \hbox {\relax \fontsize {7}{8}\selectfont $\leftarrow \joinrel \rhook $}}{}{}c File Reference}{13}{section.2.6}
\contentsline {subsection}{\numberline {2.6.1}Function Documentation}{14}{subsection.2.6.1}
\contentsline {subsubsection}{\numberline {2.6.1.1}multi()}{14}{subsubsection.2.6.1.1}
\contentsline {section}{\numberline {2.7}multiesc.\discretionary {\unhbox \voidb@x \hbox {\relax \fontsize {7}{8}\selectfont $\leftarrow \joinrel \rhook $}}{}{}c File Reference}{15}{section.2.7}
\contentsline {subsection}{\numberline {2.7.1}Function Documentation}{15}{subsection.2.7.1}
\contentsline {subsubsection}{\numberline {2.7.1.1}multiesc()}{15}{subsubsection.2.7.1.1}
\contentsline {section}{\numberline {2.8}suma.\discretionary {\unhbox \voidb@x \hbox {\relax \fontsize {7}{8}\selectfont $\leftarrow \joinrel \rhook $}}{}{}c File Reference}{16}{section.2.8}
\contentsline {subsection}{\numberline {2.8.1}Function Documentation}{16}{subsection.2.8.1}
\contentsline {subsubsection}{\numberline {2.8.1.1}suma()}{16}{subsubsection.2.8.1.1}
\contentsline {section}{\numberline {2.9}sumaesc.\discretionary {\unhbox \voidb@x \hbox {\relax \fontsize {7}{8}\selectfont $\leftarrow \joinrel \rhook $}}{}{}c File Reference}{17}{section.2.9}
\contentsline {subsection}{\numberline {2.9.1}Function Documentation}{18}{subsection.2.9.1}
\contentsline {subsubsection}{\numberline {2.9.1.1}sumaesc()}{18}{subsubsection.2.9.1.1}
\contentsline {section}{\numberline {2.10}transponer.\discretionary {\unhbox \voidb@x \hbox {\relax \fontsize {7}{8}\selectfont $\leftarrow \joinrel \rhook $}}{}{}c File Reference}{18}{section.2.10}
\contentsline {subsection}{\numberline {2.10.1}Function Documentation}{19}{subsection.2.10.1}
\contentsline {subsubsection}{\numberline {2.10.1.1}transponer()}{19}{subsubsection.2.10.1.1}
\contentsline {chapter}{Index}{21}{section*.13}
