\relax 
\providecommand\hyper@newdestlabel[2]{}
\providecommand\HyperFirstAtBeginDocument{\AtBeginDocument}
\HyperFirstAtBeginDocument{\ifx\hyper@anchor\@undefined
\global\let\oldcontentsline\contentsline
\gdef\contentsline#1#2#3#4{\oldcontentsline{#1}{#2}{#3}}
\global\let\oldnewlabel\newlabel
\gdef\newlabel#1#2{\newlabelxx{#1}#2}
\gdef\newlabelxx#1#2#3#4#5#6{\oldnewlabel{#1}{{#2}{#3}}}
\AtEndDocument{\ifx\hyper@anchor\@undefined
\let\contentsline\oldcontentsline
\let\newlabel\oldnewlabel
\fi}
\fi}
\global\let\hyper@last\relax 
\gdef\HyperFirstAtBeginDocument#1{#1}
\providecommand\HyField@AuxAddToFields[1]{}
\providecommand\HyField@AuxAddToCoFields[2]{}
\providecommand \oddpage@label [2]{}
\@writefile{toc}{\contentsline {chapter}{\numberline {1}File Index}{1}{chapter.1}}
\@writefile{lof}{\addvspace {10\p@ }}
\@writefile{lot}{\addvspace {10\p@ }}
\@writefile{toc}{\contentsline {section}{\numberline {1.1}File List}{1}{section.1.1}}
\@writefile{toc}{\contentsline {chapter}{\numberline {2}File Documentation}{3}{chapter.2}}
\@writefile{lof}{\addvspace {10\p@ }}
\@writefile{lot}{\addvspace {10\p@ }}
\@writefile{toc}{\contentsline {section}{\numberline {2.1}crear.\discretionary {\unhbox \voidb@x \hbox {\relax \fontsize  {7}{8}\selectfont  $\leftarrow \joinrel  \rhook $}}{}{}c File Reference}{3}{section.2.1}}
\newlabel{crear_8c}{{2.1}{3}{crear.\+c File Reference}{section.2.1}{}}
\@writefile{toc}{\contentsline {subsection}{\numberline {2.1.1}Function Documentation}{3}{subsection.2.1.1}}
\newlabel{crear_8c_a464fc40c9c65533293c9e6341e862686}{{2.1.1}{3}{Function Documentation}{subsection.2.1.1}{}}
\@writefile{toc}{\contentsline {subsubsection}{\numberline {2.1.1.1}crear()}{3}{subsubsection.2.1.1.1}}
\@writefile{toc}{\contentsline {section}{\numberline {2.2}ejemplo.\discretionary {\unhbox \voidb@x \hbox {\relax \fontsize  {7}{8}\selectfont  $\leftarrow \joinrel  \rhook $}}{}{}c File Reference}{4}{section.2.2}}
\newlabel{ejemplo_8c}{{2.2}{4}{ejemplo.\+c File Reference}{section.2.2}{}}
\@writefile{toc}{\contentsline {subsection}{\numberline {2.2.1}Function Documentation}{4}{subsection.2.2.1}}
\newlabel{ejemplo_8c_acdef7a1fd863a6d3770c1268cb06add3}{{2.2.1}{4}{Function Documentation}{subsection.2.2.1}{}}
\@writefile{toc}{\contentsline {subsubsection}{\numberline {2.2.1.1}main()}{4}{subsubsection.2.2.1.1}}
\newlabel{ejemplo_8c_a564adb7eac52cfdce82caf8fae4441ed}{{2.2.1.1}{4}{\texorpdfstring {main()}{main()}}{subsubsection.2.2.1.1}{}}
\@writefile{toc}{\contentsline {subsubsection}{\numberline {2.2.1.2}Print()}{5}{subsubsection.2.2.1.2}}
\newlabel{ejemplo_8c_a6ef74d0893a64397e9553baa5bd9de46}{{2.2.1.2}{5}{\texorpdfstring {Print()}{Print()}}{subsubsection.2.2.1.2}{}}
\@writefile{toc}{\contentsline {subsubsection}{\numberline {2.2.1.3}Read()}{5}{subsubsection.2.2.1.3}}
\newlabel{ejemplo_8c_af6dff72315a475431a88468130540037}{{2.2.1.3}{5}{\texorpdfstring {Read()}{Read()}}{subsubsection.2.2.1.3}{}}
\@writefile{toc}{\contentsline {subsubsection}{\numberline {2.2.1.4}Transp()}{5}{subsubsection.2.2.1.4}}
\@writefile{toc}{\contentsline {subsection}{\numberline {2.2.2}Variable Documentation}{5}{subsection.2.2.2}}
\newlabel{ejemplo_8c_aa86735386e3bc7eb9c4e31a30c1c3f84}{{2.2.2}{5}{Variable Documentation}{subsection.2.2.2}{}}
\@writefile{toc}{\contentsline {subsubsection}{\numberline {2.2.2.1}mat}{5}{subsubsection.2.2.2.1}}
\@writefile{toc}{\contentsline {section}{\numberline {2.3}limpiar.\discretionary {\unhbox \voidb@x \hbox {\relax \fontsize  {7}{8}\selectfont  $\leftarrow \joinrel  \rhook $}}{}{}c File Reference}{6}{section.2.3}}
\newlabel{limpiar_8c}{{2.3}{6}{limpiar.\+c File Reference}{section.2.3}{}}
\@writefile{toc}{\contentsline {subsection}{\numberline {2.3.1}Function Documentation}{6}{subsection.2.3.1}}
\newlabel{limpiar_8c_a1acffbf7d8f253a839bc99f14a37d170}{{2.3.1}{6}{Function Documentation}{subsection.2.3.1}{}}
\@writefile{toc}{\contentsline {subsubsection}{\numberline {2.3.1.1}limpiar()}{6}{subsubsection.2.3.1.1}}
\@writefile{toc}{\contentsline {section}{\numberline {2.4}matriz.\discretionary {\unhbox \voidb@x \hbox {\relax \fontsize  {7}{8}\selectfont  $\leftarrow \joinrel  \rhook $}}{}{}c File Reference}{6}{section.2.4}}
\newlabel{matriz_8c}{{2.4}{6}{matriz.\+c File Reference}{section.2.4}{}}
\@writefile{toc}{\contentsline {subsection}{\numberline {2.4.1}Function Documentation}{7}{subsection.2.4.1}}
\newlabel{matriz_8c_ae66f6b31b5ad750f1fe042a706a4e3d4}{{2.4.1}{7}{Function Documentation}{subsection.2.4.1}{}}
\@writefile{toc}{\contentsline {subsubsection}{\numberline {2.4.1.1}main()}{7}{subsubsection.2.4.1.1}}
\@writefile{toc}{\contentsline {section}{\numberline {2.5}matriz.\discretionary {\unhbox \voidb@x \hbox {\relax \fontsize  {7}{8}\selectfont  $\leftarrow \joinrel  \rhook $}}{}{}h File Reference}{7}{section.2.5}}
\newlabel{matriz_8h}{{2.5}{7}{matriz.\+h File Reference}{section.2.5}{}}
\@writefile{toc}{\contentsline {subsection}{\numberline {2.5.1}Function Documentation}{7}{subsection.2.5.1}}
\newlabel{matriz_8h_aff4baf26ef6d4774ad6c669c27888c35}{{2.5.1}{7}{Function Documentation}{subsection.2.5.1}{}}
\@writefile{toc}{\contentsline {subsubsection}{\numberline {2.5.1.1}crear()}{8}{subsubsection.2.5.1.1}}
\newlabel{matriz_8h_a6adfa07907800e226c2d7b0c7ad232c5}{{2.5.1.1}{8}{\texorpdfstring {crear()}{crear()}}{subsubsection.2.5.1.1}{}}
\@writefile{toc}{\contentsline {subsubsection}{\numberline {2.5.1.2}limpiar()}{8}{subsubsection.2.5.1.2}}
\newlabel{matriz_8h_ad294c30142e37da5731d4f7ca0518749}{{2.5.1.2}{9}{\texorpdfstring {limpiar()}{limpiar()}}{subsubsection.2.5.1.2}{}}
\@writefile{toc}{\contentsline {subsubsection}{\numberline {2.5.1.3}multi()}{9}{subsubsection.2.5.1.3}}
\newlabel{matriz_8h_ab2047a2f86a51e91f3966e4182324821}{{2.5.1.3}{10}{\texorpdfstring {multi()}{multi()}}{subsubsection.2.5.1.3}{}}
\@writefile{toc}{\contentsline {subsubsection}{\numberline {2.5.1.4}multiesc()}{10}{subsubsection.2.5.1.4}}
\newlabel{matriz_8h_a7cfef27c0bba8d8b9137f20f9731611f}{{2.5.1.4}{11}{\texorpdfstring {multiesc()}{multiesc()}}{subsubsection.2.5.1.4}{}}
\@writefile{toc}{\contentsline {subsubsection}{\numberline {2.5.1.5}suma()}{11}{subsubsection.2.5.1.5}}
\newlabel{matriz_8h_afc9ed4d4ab77df763aba5f3377a787c8}{{2.5.1.5}{12}{\texorpdfstring {suma()}{suma()}}{subsubsection.2.5.1.5}{}}
\@writefile{toc}{\contentsline {subsubsection}{\numberline {2.5.1.6}sumaesc()}{12}{subsubsection.2.5.1.6}}
\newlabel{matriz_8h_a2fa1ff6530b5c45f5888de21b679dce1}{{2.5.1.6}{12}{\texorpdfstring {sumaesc()}{sumaesc()}}{subsubsection.2.5.1.6}{}}
\@writefile{toc}{\contentsline {subsubsection}{\numberline {2.5.1.7}transponer()}{13}{subsubsection.2.5.1.7}}
\@writefile{toc}{\contentsline {section}{\numberline {2.6}multi.\discretionary {\unhbox \voidb@x \hbox {\relax \fontsize  {7}{8}\selectfont  $\leftarrow \joinrel  \rhook $}}{}{}c File Reference}{13}{section.2.6}}
\newlabel{multi_8c}{{2.6}{13}{multi.\+c File Reference}{section.2.6}{}}
\@writefile{toc}{\contentsline {subsection}{\numberline {2.6.1}Function Documentation}{14}{subsection.2.6.1}}
\newlabel{multi_8c_a348674c00e083764b4205f941d30598e}{{2.6.1}{14}{Function Documentation}{subsection.2.6.1}{}}
\@writefile{toc}{\contentsline {subsubsection}{\numberline {2.6.1.1}multi()}{14}{subsubsection.2.6.1.1}}
\@writefile{toc}{\contentsline {section}{\numberline {2.7}multiesc.\discretionary {\unhbox \voidb@x \hbox {\relax \fontsize  {7}{8}\selectfont  $\leftarrow \joinrel  \rhook $}}{}{}c File Reference}{15}{section.2.7}}
\newlabel{multiesc_8c}{{2.7}{15}{multiesc.\+c File Reference}{section.2.7}{}}
\@writefile{toc}{\contentsline {subsection}{\numberline {2.7.1}Function Documentation}{15}{subsection.2.7.1}}
\newlabel{multiesc_8c_ae67ea316d4eddd9d7057c3999562f965}{{2.7.1}{15}{Function Documentation}{subsection.2.7.1}{}}
\@writefile{toc}{\contentsline {subsubsection}{\numberline {2.7.1.1}multiesc()}{15}{subsubsection.2.7.1.1}}
\@writefile{toc}{\contentsline {section}{\numberline {2.8}suma.\discretionary {\unhbox \voidb@x \hbox {\relax \fontsize  {7}{8}\selectfont  $\leftarrow \joinrel  \rhook $}}{}{}c File Reference}{16}{section.2.8}}
\newlabel{suma_8c}{{2.8}{16}{suma.\+c File Reference}{section.2.8}{}}
\@writefile{toc}{\contentsline {subsection}{\numberline {2.8.1}Function Documentation}{16}{subsection.2.8.1}}
\newlabel{suma_8c_af99c2c7b2126f48c8a824e0567f042e3}{{2.8.1}{16}{Function Documentation}{subsection.2.8.1}{}}
\@writefile{toc}{\contentsline {subsubsection}{\numberline {2.8.1.1}suma()}{16}{subsubsection.2.8.1.1}}
\@writefile{toc}{\contentsline {section}{\numberline {2.9}sumaesc.\discretionary {\unhbox \voidb@x \hbox {\relax \fontsize  {7}{8}\selectfont  $\leftarrow \joinrel  \rhook $}}{}{}c File Reference}{17}{section.2.9}}
\newlabel{sumaesc_8c}{{2.9}{17}{sumaesc.\+c File Reference}{section.2.9}{}}
\@writefile{toc}{\contentsline {subsection}{\numberline {2.9.1}Function Documentation}{18}{subsection.2.9.1}}
\newlabel{sumaesc_8c_aa45a5f0beacde65c6a448beaf4bc4e84}{{2.9.1}{18}{Function Documentation}{subsection.2.9.1}{}}
\@writefile{toc}{\contentsline {subsubsection}{\numberline {2.9.1.1}sumaesc()}{18}{subsubsection.2.9.1.1}}
\@writefile{toc}{\contentsline {section}{\numberline {2.10}transponer.\discretionary {\unhbox \voidb@x \hbox {\relax \fontsize  {7}{8}\selectfont  $\leftarrow \joinrel  \rhook $}}{}{}c File Reference}{18}{section.2.10}}
\newlabel{transponer_8c}{{2.10}{18}{transponer.\+c File Reference}{section.2.10}{}}
\@writefile{toc}{\contentsline {subsection}{\numberline {2.10.1}Function Documentation}{19}{subsection.2.10.1}}
\newlabel{transponer_8c_a2fa1ff6530b5c45f5888de21b679dce1}{{2.10.1}{19}{Function Documentation}{subsection.2.10.1}{}}
\@writefile{toc}{\contentsline {subsubsection}{\numberline {2.10.1.1}transponer()}{19}{subsubsection.2.10.1.1}}
\@writefile{toc}{\contentsline {chapter}{Index}{21}{section*.13}}
