\contentsline {chapter}{\numberline {1}File Index}{1}{chapter.1}
\contentsline {section}{\numberline {1.1}File List}{1}{section.1.1}
\contentsline {chapter}{\numberline {2}File Documentation}{3}{chapter.2}
\contentsline {section}{\numberline {2.1}f1.\discretionary {\unhbox \voidb@x \hbox {\relax \fontsize {7}{8}\selectfont $\leftarrow \joinrel \rhook $}}{}{}c File Reference}{3}{section.2.1}
\contentsline {subsection}{\numberline {2.1.1}Function Documentation}{3}{subsection.2.1.1}
\contentsline {subsubsection}{\numberline {2.1.1.1}total\discretionary {\unhbox \voidb@x \hbox {\relax \fontsize {7}{8}\selectfont $\leftarrow \joinrel \rhook $}}{}{}Complejo()}{3}{subsubsection.2.1.1.1}
\contentsline {section}{\numberline {2.2}f2.\discretionary {\unhbox \voidb@x \hbox {\relax \fontsize {7}{8}\selectfont $\leftarrow \joinrel \rhook $}}{}{}c File Reference}{4}{section.2.2}
\contentsline {subsection}{\numberline {2.2.1}Function Documentation}{4}{subsection.2.2.1}
\contentsline {subsubsection}{\numberline {2.2.1.1}Promedio\discretionary {\unhbox \voidb@x \hbox {\relax \fontsize {7}{8}\selectfont $\leftarrow \joinrel \rhook $}}{}{}Piso()}{4}{subsubsection.2.2.1.1}
\contentsline {section}{\numberline {2.3}f3.\discretionary {\unhbox \voidb@x \hbox {\relax \fontsize {7}{8}\selectfont $\leftarrow \joinrel \rhook $}}{}{}c File Reference}{4}{section.2.3}
\contentsline {subsection}{\numberline {2.3.1}Function Documentation}{4}{subsection.2.3.1}
\contentsline {subsubsection}{\numberline {2.3.1.1}total\discretionary {\unhbox \voidb@x \hbox {\relax \fontsize {7}{8}\selectfont $\leftarrow \joinrel \rhook $}}{}{}Torre()}{5}{subsubsection.2.3.1.1}
\contentsline {section}{\numberline {2.4}header.\discretionary {\unhbox \voidb@x \hbox {\relax \fontsize {7}{8}\selectfont $\leftarrow \joinrel \rhook $}}{}{}h File Reference}{5}{section.2.4}
\contentsline {subsection}{\numberline {2.4.1}Function Documentation}{5}{subsection.2.4.1}
\contentsline {subsubsection}{\numberline {2.4.1.1}Promedio\discretionary {\unhbox \voidb@x \hbox {\relax \fontsize {7}{8}\selectfont $\leftarrow \joinrel \rhook $}}{}{}Piso()}{5}{subsubsection.2.4.1.1}
\contentsline {subsubsection}{\numberline {2.4.1.2}total\discretionary {\unhbox \voidb@x \hbox {\relax \fontsize {7}{8}\selectfont $\leftarrow \joinrel \rhook $}}{}{}Complejo()}{6}{subsubsection.2.4.1.2}
\contentsline {subsubsection}{\numberline {2.4.1.3}total\discretionary {\unhbox \voidb@x \hbox {\relax \fontsize {7}{8}\selectfont $\leftarrow \joinrel \rhook $}}{}{}Torre()}{6}{subsubsection.2.4.1.3}
\contentsline {section}{\numberline {2.5}main.\discretionary {\unhbox \voidb@x \hbox {\relax \fontsize {7}{8}\selectfont $\leftarrow \joinrel \rhook $}}{}{}c File Reference}{6}{section.2.5}
\contentsline {subsection}{\numberline {2.5.1}Function Documentation}{6}{subsection.2.5.1}
\contentsline {subsubsection}{\numberline {2.5.1.1}main()}{7}{subsubsection.2.5.1.1}
\contentsline {chapter}{Index}{9}{section*.7}
