\relax 
\providecommand\hyper@newdestlabel[2]{}
\providecommand\HyperFirstAtBeginDocument{\AtBeginDocument}
\HyperFirstAtBeginDocument{\ifx\hyper@anchor\@undefined
\global\let\oldcontentsline\contentsline
\gdef\contentsline#1#2#3#4{\oldcontentsline{#1}{#2}{#3}}
\global\let\oldnewlabel\newlabel
\gdef\newlabel#1#2{\newlabelxx{#1}#2}
\gdef\newlabelxx#1#2#3#4#5#6{\oldnewlabel{#1}{{#2}{#3}}}
\AtEndDocument{\ifx\hyper@anchor\@undefined
\let\contentsline\oldcontentsline
\let\newlabel\oldnewlabel
\fi}
\fi}
\global\let\hyper@last\relax 
\gdef\HyperFirstAtBeginDocument#1{#1}
\providecommand\HyField@AuxAddToFields[1]{}
\providecommand\HyField@AuxAddToCoFields[2]{}
\providecommand \oddpage@label [2]{}
\@writefile{toc}{\contentsline {chapter}{\numberline {1}File Index}{1}{chapter.1}}
\@writefile{lof}{\addvspace {10\p@ }}
\@writefile{lot}{\addvspace {10\p@ }}
\@writefile{toc}{\contentsline {section}{\numberline {1.1}File List}{1}{section.1.1}}
\@writefile{toc}{\contentsline {chapter}{\numberline {2}File Documentation}{3}{chapter.2}}
\@writefile{lof}{\addvspace {10\p@ }}
\@writefile{lot}{\addvspace {10\p@ }}
\@writefile{toc}{\contentsline {section}{\numberline {2.1}f1.\discretionary {\unhbox \voidb@x \hbox {\relax \fontsize  {7}{8}\selectfont  $\leftarrow \joinrel  \rhook $}}{}{}c File Reference}{3}{section.2.1}}
\newlabel{f1_8c}{{2.1}{3}{f1.\+c File Reference}{section.2.1}{}}
\@writefile{toc}{\contentsline {subsection}{\numberline {2.1.1}Function Documentation}{3}{subsection.2.1.1}}
\newlabel{f1_8c_ab62bb41c8e3fd104b5fe60317a8e7e66}{{2.1.1}{3}{Function Documentation}{subsection.2.1.1}{}}
\@writefile{toc}{\contentsline {subsubsection}{\numberline {2.1.1.1}total\discretionary {\unhbox \voidb@x \hbox {\relax \fontsize  {7}{8}\selectfont  $\leftarrow \joinrel  \rhook $}}{}{}Complejo()}{3}{subsubsection.2.1.1.1}}
\@writefile{toc}{\contentsline {section}{\numberline {2.2}f2.\discretionary {\unhbox \voidb@x \hbox {\relax \fontsize  {7}{8}\selectfont  $\leftarrow \joinrel  \rhook $}}{}{}c File Reference}{4}{section.2.2}}
\newlabel{f2_8c}{{2.2}{4}{f2.\+c File Reference}{section.2.2}{}}
\@writefile{toc}{\contentsline {subsection}{\numberline {2.2.1}Function Documentation}{4}{subsection.2.2.1}}
\newlabel{f2_8c_a0b8205a6858a41e68c8486b04cdec7e8}{{2.2.1}{4}{Function Documentation}{subsection.2.2.1}{}}
\@writefile{toc}{\contentsline {subsubsection}{\numberline {2.2.1.1}Promedio\discretionary {\unhbox \voidb@x \hbox {\relax \fontsize  {7}{8}\selectfont  $\leftarrow \joinrel  \rhook $}}{}{}Piso()}{4}{subsubsection.2.2.1.1}}
\@writefile{toc}{\contentsline {section}{\numberline {2.3}f3.\discretionary {\unhbox \voidb@x \hbox {\relax \fontsize  {7}{8}\selectfont  $\leftarrow \joinrel  \rhook $}}{}{}c File Reference}{4}{section.2.3}}
\newlabel{f3_8c}{{2.3}{4}{f3.\+c File Reference}{section.2.3}{}}
\@writefile{toc}{\contentsline {subsection}{\numberline {2.3.1}Function Documentation}{4}{subsection.2.3.1}}
\newlabel{f3_8c_a743cbbda6f8fb7bcf0e5853151da23c6}{{2.3.1}{4}{Function Documentation}{subsection.2.3.1}{}}
\@writefile{toc}{\contentsline {subsubsection}{\numberline {2.3.1.1}total\discretionary {\unhbox \voidb@x \hbox {\relax \fontsize  {7}{8}\selectfont  $\leftarrow \joinrel  \rhook $}}{}{}Torre()}{5}{subsubsection.2.3.1.1}}
\@writefile{toc}{\contentsline {section}{\numberline {2.4}header.\discretionary {\unhbox \voidb@x \hbox {\relax \fontsize  {7}{8}\selectfont  $\leftarrow \joinrel  \rhook $}}{}{}h File Reference}{5}{section.2.4}}
\newlabel{header_8h}{{2.4}{5}{header.\+h File Reference}{section.2.4}{}}
\@writefile{toc}{\contentsline {subsection}{\numberline {2.4.1}Function Documentation}{5}{subsection.2.4.1}}
\newlabel{header_8h_a5562c342f5a043ea6093e4f820f27db3}{{2.4.1}{5}{Function Documentation}{subsection.2.4.1}{}}
\@writefile{toc}{\contentsline {subsubsection}{\numberline {2.4.1.1}Promedio\discretionary {\unhbox \voidb@x \hbox {\relax \fontsize  {7}{8}\selectfont  $\leftarrow \joinrel  \rhook $}}{}{}Piso()}{5}{subsubsection.2.4.1.1}}
\newlabel{header_8h_a3cc344dde596425f9731defac13c9c6b}{{2.4.1.1}{5}{\texorpdfstring {Promedio\+Piso()}{PromedioPiso()}}{subsubsection.2.4.1.1}{}}
\@writefile{toc}{\contentsline {subsubsection}{\numberline {2.4.1.2}total\discretionary {\unhbox \voidb@x \hbox {\relax \fontsize  {7}{8}\selectfont  $\leftarrow \joinrel  \rhook $}}{}{}Complejo()}{6}{subsubsection.2.4.1.2}}
\newlabel{header_8h_a2327004a31288d3620733b2e2c2b262f}{{2.4.1.2}{6}{\texorpdfstring {total\+Complejo()}{totalComplejo()}}{subsubsection.2.4.1.2}{}}
\@writefile{toc}{\contentsline {subsubsection}{\numberline {2.4.1.3}total\discretionary {\unhbox \voidb@x \hbox {\relax \fontsize  {7}{8}\selectfont  $\leftarrow \joinrel  \rhook $}}{}{}Torre()}{6}{subsubsection.2.4.1.3}}
\@writefile{toc}{\contentsline {section}{\numberline {2.5}main.\discretionary {\unhbox \voidb@x \hbox {\relax \fontsize  {7}{8}\selectfont  $\leftarrow \joinrel  \rhook $}}{}{}c File Reference}{6}{section.2.5}}
\newlabel{main_8c}{{2.5}{6}{main.\+c File Reference}{section.2.5}{}}
\@writefile{toc}{\contentsline {subsection}{\numberline {2.5.1}Function Documentation}{6}{subsection.2.5.1}}
\newlabel{main_8c_ae66f6b31b5ad750f1fe042a706a4e3d4}{{2.5.1}{6}{Function Documentation}{subsection.2.5.1}{}}
\@writefile{toc}{\contentsline {subsubsection}{\numberline {2.5.1.1}main()}{7}{subsubsection.2.5.1.1}}
\@writefile{toc}{\contentsline {chapter}{Index}{9}{section*.7}}
