\contentsline {chapter}{\numberline {1}File Index}{1}{chapter.1}
\contentsline {section}{\numberline {1.1}File List}{1}{section.1.1}
\contentsline {chapter}{\numberline {2}File Documentation}{3}{chapter.2}
\contentsline {section}{\numberline {2.1}maze.\discretionary {\unhbox \voidb@x \hbox {\relax \fontsize {7}{8}\selectfont $\leftarrow \joinrel \rhook $}}{}{}h File Reference}{3}{section.2.1}
\contentsline {subsection}{\numberline {2.1.1}Function Documentation}{3}{subsection.2.1.1}
\contentsline {subsubsection}{\numberline {2.1.1.1}leer\discretionary {\unhbox \voidb@x \hbox {\relax \fontsize {7}{8}\selectfont $\leftarrow \joinrel \rhook $}}{}{}Archivo()}{3}{subsubsection.2.1.1.1}
\contentsline {subsubsection}{\numberline {2.1.1.2}Muestra\discretionary {\unhbox \voidb@x \hbox {\relax \fontsize {7}{8}\selectfont $\leftarrow \joinrel \rhook $}}{}{}Laberinto()}{3}{subsubsection.2.1.1.2}
\contentsline {subsubsection}{\numberline {2.1.1.3}read\discretionary {\unhbox \voidb@x \hbox {\relax \fontsize {7}{8}\selectfont $\leftarrow \joinrel \rhook $}}{}{}Maze()}{4}{subsubsection.2.1.1.3}
\contentsline {subsubsection}{\numberline {2.1.1.4}Recorrer\discretionary {\unhbox \voidb@x \hbox {\relax \fontsize {7}{8}\selectfont $\leftarrow \joinrel \rhook $}}{}{}Laberinto()}{4}{subsubsection.2.1.1.4}
\contentsline {section}{\numberline {2.2}maze.\discretionary {\unhbox \voidb@x \hbox {\relax \fontsize {7}{8}\selectfont $\leftarrow \joinrel \rhook $}}{}{}txt File Reference}{4}{section.2.2}
\contentsline {section}{\numberline {2.3}prueba.\discretionary {\unhbox \voidb@x \hbox {\relax \fontsize {7}{8}\selectfont $\leftarrow \joinrel \rhook $}}{}{}c File Reference}{4}{section.2.3}
\contentsline {subsection}{\numberline {2.3.1}Function Documentation}{5}{subsection.2.3.1}
\contentsline {subsubsection}{\numberline {2.3.1.1}Buscar\discretionary {\unhbox \voidb@x \hbox {\relax \fontsize {7}{8}\selectfont $\leftarrow \joinrel \rhook $}}{}{}Queso()}{5}{subsubsection.2.3.1.1}
\contentsline {subsubsection}{\numberline {2.3.1.2}leer\discretionary {\unhbox \voidb@x \hbox {\relax \fontsize {7}{8}\selectfont $\leftarrow \joinrel \rhook $}}{}{}Archivo()}{6}{subsubsection.2.3.1.2}
\contentsline {subsubsection}{\numberline {2.3.1.3}main()}{7}{subsubsection.2.3.1.3}
\contentsline {subsubsection}{\numberline {2.3.1.4}Muestra\discretionary {\unhbox \voidb@x \hbox {\relax \fontsize {7}{8}\selectfont $\leftarrow \joinrel \rhook $}}{}{}Laberinto()}{8}{subsubsection.2.3.1.4}
\contentsline {subsection}{\numberline {2.3.2}Variable Documentation}{8}{subsection.2.3.2}
\contentsline {subsubsection}{\numberline {2.3.2.1}A\discretionary {\unhbox \voidb@x \hbox {\relax \fontsize {7}{8}\selectfont $\leftarrow \joinrel \rhook $}}{}{}B\discretionary {\unhbox \voidb@x \hbox {\relax \fontsize {7}{8}\selectfont $\leftarrow \joinrel \rhook $}}{}{}A\discretionary {\unhbox \voidb@x \hbox {\relax \fontsize {7}{8}\selectfont $\leftarrow \joinrel \rhook $}}{}{}JO}{8}{subsubsection.2.3.2.1}
\contentsline {subsubsection}{\numberline {2.3.2.2}abajo}{8}{subsubsection.2.3.2.2}
\contentsline {subsubsection}{\numberline {2.3.2.3}A\discretionary {\unhbox \voidb@x \hbox {\relax \fontsize {7}{8}\selectfont $\leftarrow \joinrel \rhook $}}{}{}R\discretionary {\unhbox \voidb@x \hbox {\relax \fontsize {7}{8}\selectfont $\leftarrow \joinrel \rhook $}}{}{}R\discretionary {\unhbox \voidb@x \hbox {\relax \fontsize {7}{8}\selectfont $\leftarrow \joinrel \rhook $}}{}{}I\discretionary {\unhbox \voidb@x \hbox {\relax \fontsize {7}{8}\selectfont $\leftarrow \joinrel \rhook $}}{}{}BA}{8}{subsubsection.2.3.2.3}
\contentsline {subsubsection}{\numberline {2.3.2.4}arriba}{9}{subsubsection.2.3.2.4}
\contentsline {subsubsection}{\numberline {2.3.2.5}c}{9}{subsubsection.2.3.2.5}
\contentsline {subsubsection}{\numberline {2.3.2.6}cp}{9}{subsubsection.2.3.2.6}
\contentsline {subsubsection}{\numberline {2.3.2.7}cs}{9}{subsubsection.2.3.2.7}
\contentsline {subsubsection}{\numberline {2.3.2.8}D\discretionary {\unhbox \voidb@x \hbox {\relax \fontsize {7}{8}\selectfont $\leftarrow \joinrel \rhook $}}{}{}E\discretionary {\unhbox \voidb@x \hbox {\relax \fontsize {7}{8}\selectfont $\leftarrow \joinrel \rhook $}}{}{}R\discretionary {\unhbox \voidb@x \hbox {\relax \fontsize {7}{8}\selectfont $\leftarrow \joinrel \rhook $}}{}{}E\discretionary {\unhbox \voidb@x \hbox {\relax \fontsize {7}{8}\selectfont $\leftarrow \joinrel \rhook $}}{}{}C\discretionary {\unhbox \voidb@x \hbox {\relax \fontsize {7}{8}\selectfont $\leftarrow \joinrel \rhook $}}{}{}HA}{9}{subsubsection.2.3.2.8}
\contentsline {subsubsection}{\numberline {2.3.2.9}derecha}{9}{subsubsection.2.3.2.9}
\contentsline {subsubsection}{\numberline {2.3.2.10}direccion}{10}{subsubsection.2.3.2.10}
\contentsline {subsubsection}{\numberline {2.3.2.11}f}{10}{subsubsection.2.3.2.11}
\contentsline {subsubsection}{\numberline {2.3.2.12}fp}{10}{subsubsection.2.3.2.12}
\contentsline {subsubsection}{\numberline {2.3.2.13}fs}{10}{subsubsection.2.3.2.13}
\contentsline {subsubsection}{\numberline {2.3.2.14}I\discretionary {\unhbox \voidb@x \hbox {\relax \fontsize {7}{8}\selectfont $\leftarrow \joinrel \rhook $}}{}{}Z\discretionary {\unhbox \voidb@x \hbox {\relax \fontsize {7}{8}\selectfont $\leftarrow \joinrel \rhook $}}{}{}Q\discretionary {\unhbox \voidb@x \hbox {\relax \fontsize {7}{8}\selectfont $\leftarrow \joinrel \rhook $}}{}{}U\discretionary {\unhbox \voidb@x \hbox {\relax \fontsize {7}{8}\selectfont $\leftarrow \joinrel \rhook $}}{}{}I\discretionary {\unhbox \voidb@x \hbox {\relax \fontsize {7}{8}\selectfont $\leftarrow \joinrel \rhook $}}{}{}E\discretionary {\unhbox \voidb@x \hbox {\relax \fontsize {7}{8}\selectfont $\leftarrow \joinrel \rhook $}}{}{}R\discretionary {\unhbox \voidb@x \hbox {\relax \fontsize {7}{8}\selectfont $\leftarrow \joinrel \rhook $}}{}{}DA}{10}{subsubsection.2.3.2.14}
\contentsline {subsubsection}{\numberline {2.3.2.15}izquierda}{10}{subsubsection.2.3.2.15}
\contentsline {subsubsection}{\numberline {2.3.2.16}m}{10}{subsubsection.2.3.2.16}
\contentsline {chapter}{Index}{11}{section*.5}
