\relax 
\providecommand\hyper@newdestlabel[2]{}
\providecommand\HyperFirstAtBeginDocument{\AtBeginDocument}
\HyperFirstAtBeginDocument{\ifx\hyper@anchor\@undefined
\global\let\oldcontentsline\contentsline
\gdef\contentsline#1#2#3#4{\oldcontentsline{#1}{#2}{#3}}
\global\let\oldnewlabel\newlabel
\gdef\newlabel#1#2{\newlabelxx{#1}#2}
\gdef\newlabelxx#1#2#3#4#5#6{\oldnewlabel{#1}{{#2}{#3}}}
\AtEndDocument{\ifx\hyper@anchor\@undefined
\let\contentsline\oldcontentsline
\let\newlabel\oldnewlabel
\fi}
\fi}
\global\let\hyper@last\relax 
\gdef\HyperFirstAtBeginDocument#1{#1}
\providecommand\HyField@AuxAddToFields[1]{}
\providecommand\HyField@AuxAddToCoFields[2]{}
\providecommand \oddpage@label [2]{}
\@writefile{toc}{\contentsline {chapter}{\numberline {1}File Index}{1}{chapter.1}}
\@writefile{lof}{\addvspace {10\p@ }}
\@writefile{lot}{\addvspace {10\p@ }}
\@writefile{toc}{\contentsline {section}{\numberline {1.1}File List}{1}{section.1.1}}
\@writefile{toc}{\contentsline {chapter}{\numberline {2}File Documentation}{3}{chapter.2}}
\@writefile{lof}{\addvspace {10\p@ }}
\@writefile{lot}{\addvspace {10\p@ }}
\@writefile{toc}{\contentsline {section}{\numberline {2.1}maze.\discretionary {\unhbox \voidb@x \hbox {\relax \fontsize  {7}{8}\selectfont  $\leftarrow \joinrel  \rhook $}}{}{}h File Reference}{3}{section.2.1}}
\newlabel{maze_8h}{{2.1}{3}{maze.\+h File Reference}{section.2.1}{}}
\@writefile{toc}{\contentsline {subsection}{\numberline {2.1.1}Function Documentation}{3}{subsection.2.1.1}}
\newlabel{maze_8h_a6ee3e55c5eea1cf28e7085d27e5ad377}{{2.1.1}{3}{Function Documentation}{subsection.2.1.1}{}}
\@writefile{toc}{\contentsline {subsubsection}{\numberline {2.1.1.1}leer\discretionary {\unhbox \voidb@x \hbox {\relax \fontsize  {7}{8}\selectfont  $\leftarrow \joinrel  \rhook $}}{}{}Archivo()}{3}{subsubsection.2.1.1.1}}
\newlabel{maze_8h_a9b2515807a01747cd80287dae111fdd2}{{2.1.1.1}{3}{\texorpdfstring {leer\+Archivo()}{leerArchivo()}}{subsubsection.2.1.1.1}{}}
\@writefile{toc}{\contentsline {subsubsection}{\numberline {2.1.1.2}Muestra\discretionary {\unhbox \voidb@x \hbox {\relax \fontsize  {7}{8}\selectfont  $\leftarrow \joinrel  \rhook $}}{}{}Laberinto()}{3}{subsubsection.2.1.1.2}}
\newlabel{maze_8h_a32ee440ff8999119372eabad55178993}{{2.1.1.2}{3}{\texorpdfstring {Muestra\+Laberinto()}{MuestraLaberinto()}}{subsubsection.2.1.1.2}{}}
\@writefile{toc}{\contentsline {subsubsection}{\numberline {2.1.1.3}read\discretionary {\unhbox \voidb@x \hbox {\relax \fontsize  {7}{8}\selectfont  $\leftarrow \joinrel  \rhook $}}{}{}Maze()}{4}{subsubsection.2.1.1.3}}
\newlabel{maze_8h_a235a72b5cfceda91cce2443748b87a8f}{{2.1.1.3}{4}{\texorpdfstring {read\+Maze()}{readMaze()}}{subsubsection.2.1.1.3}{}}
\@writefile{toc}{\contentsline {subsubsection}{\numberline {2.1.1.4}Recorrer\discretionary {\unhbox \voidb@x \hbox {\relax \fontsize  {7}{8}\selectfont  $\leftarrow \joinrel  \rhook $}}{}{}Laberinto()}{4}{subsubsection.2.1.1.4}}
\@writefile{toc}{\contentsline {section}{\numberline {2.2}maze.\discretionary {\unhbox \voidb@x \hbox {\relax \fontsize  {7}{8}\selectfont  $\leftarrow \joinrel  \rhook $}}{}{}txt File Reference}{4}{section.2.2}}
\newlabel{maze_8txt}{{2.2}{4}{maze.\+txt File Reference}{section.2.2}{}}
\@writefile{toc}{\contentsline {section}{\numberline {2.3}prueba.\discretionary {\unhbox \voidb@x \hbox {\relax \fontsize  {7}{8}\selectfont  $\leftarrow \joinrel  \rhook $}}{}{}c File Reference}{4}{section.2.3}}
\newlabel{prueba_8c}{{2.3}{4}{prueba.\+c File Reference}{section.2.3}{}}
\@writefile{toc}{\contentsline {subsection}{\numberline {2.3.1}Function Documentation}{5}{subsection.2.3.1}}
\newlabel{prueba_8c_a8527bcc03ce8624048ca347aef5a5157}{{2.3.1}{5}{Function Documentation}{subsection.2.3.1}{}}
\@writefile{toc}{\contentsline {subsubsection}{\numberline {2.3.1.1}Buscar\discretionary {\unhbox \voidb@x \hbox {\relax \fontsize  {7}{8}\selectfont  $\leftarrow \joinrel  \rhook $}}{}{}Queso()}{5}{subsubsection.2.3.1.1}}
\newlabel{prueba_8c_a6c585b7181144d0c4d39d9609cb79a89}{{2.3.1.1}{6}{\texorpdfstring {Buscar\+Queso()}{BuscarQueso()}}{subsubsection.2.3.1.1}{}}
\@writefile{toc}{\contentsline {subsubsection}{\numberline {2.3.1.2}leer\discretionary {\unhbox \voidb@x \hbox {\relax \fontsize  {7}{8}\selectfont  $\leftarrow \joinrel  \rhook $}}{}{}Archivo()}{6}{subsubsection.2.3.1.2}}
\newlabel{prueba_8c_ae66f6b31b5ad750f1fe042a706a4e3d4}{{2.3.1.2}{7}{\texorpdfstring {leer\+Archivo()}{leerArchivo()}}{subsubsection.2.3.1.2}{}}
\@writefile{toc}{\contentsline {subsubsection}{\numberline {2.3.1.3}main()}{7}{subsubsection.2.3.1.3}}
\newlabel{prueba_8c_ac6868fe5ea87fdfacd2671a45ad8731e}{{2.3.1.3}{7}{\texorpdfstring {main()}{main()}}{subsubsection.2.3.1.3}{}}
\@writefile{toc}{\contentsline {subsubsection}{\numberline {2.3.1.4}Muestra\discretionary {\unhbox \voidb@x \hbox {\relax \fontsize  {7}{8}\selectfont  $\leftarrow \joinrel  \rhook $}}{}{}Laberinto()}{8}{subsubsection.2.3.1.4}}
\@writefile{toc}{\contentsline {subsection}{\numberline {2.3.2}Variable Documentation}{8}{subsection.2.3.2}}
\newlabel{prueba_8c_a285fb499dd0a65bf5788d0605ff2e002}{{2.3.2}{8}{Variable Documentation}{subsection.2.3.2}{}}
\@writefile{toc}{\contentsline {subsubsection}{\numberline {2.3.2.1}A\discretionary {\unhbox \voidb@x \hbox {\relax \fontsize  {7}{8}\selectfont  $\leftarrow \joinrel  \rhook $}}{}{}B\discretionary {\unhbox \voidb@x \hbox {\relax \fontsize  {7}{8}\selectfont  $\leftarrow \joinrel  \rhook $}}{}{}A\discretionary {\unhbox \voidb@x \hbox {\relax \fontsize  {7}{8}\selectfont  $\leftarrow \joinrel  \rhook $}}{}{}JO}{8}{subsubsection.2.3.2.1}}
\newlabel{prueba_8c_a8bb04a221a657b4c64670098f8524cd0}{{2.3.2.1}{8}{\texorpdfstring {A\+B\+A\+JO}{ABAJO}}{subsubsection.2.3.2.1}{}}
\@writefile{toc}{\contentsline {subsubsection}{\numberline {2.3.2.2}abajo}{8}{subsubsection.2.3.2.2}}
\newlabel{prueba_8c_a732d6d5c760d3cead7920f4c45018088}{{2.3.2.2}{8}{\texorpdfstring {abajo}{abajo}}{subsubsection.2.3.2.2}{}}
\@writefile{toc}{\contentsline {subsubsection}{\numberline {2.3.2.3}A\discretionary {\unhbox \voidb@x \hbox {\relax \fontsize  {7}{8}\selectfont  $\leftarrow \joinrel  \rhook $}}{}{}R\discretionary {\unhbox \voidb@x \hbox {\relax \fontsize  {7}{8}\selectfont  $\leftarrow \joinrel  \rhook $}}{}{}R\discretionary {\unhbox \voidb@x \hbox {\relax \fontsize  {7}{8}\selectfont  $\leftarrow \joinrel  \rhook $}}{}{}I\discretionary {\unhbox \voidb@x \hbox {\relax \fontsize  {7}{8}\selectfont  $\leftarrow \joinrel  \rhook $}}{}{}BA}{8}{subsubsection.2.3.2.3}}
\newlabel{prueba_8c_a9829b1d99f6a015755afa11ae6cb6794}{{2.3.2.3}{8}{\texorpdfstring {A\+R\+R\+I\+BA}{ARRIBA}}{subsubsection.2.3.2.3}{}}
\@writefile{toc}{\contentsline {subsubsection}{\numberline {2.3.2.4}arriba}{9}{subsubsection.2.3.2.4}}
\newlabel{prueba_8c_a4e1e0e72dd773439e333c84dd762a9c3}{{2.3.2.4}{9}{\texorpdfstring {arriba}{arriba}}{subsubsection.2.3.2.4}{}}
\@writefile{toc}{\contentsline {subsubsection}{\numberline {2.3.2.5}c}{9}{subsubsection.2.3.2.5}}
\newlabel{prueba_8c_a8a8d3b640018f82b1a7420c41e820b91}{{2.3.2.5}{9}{\texorpdfstring {c}{c}}{subsubsection.2.3.2.5}{}}
\@writefile{toc}{\contentsline {subsubsection}{\numberline {2.3.2.6}cp}{9}{subsubsection.2.3.2.6}}
\newlabel{prueba_8c_ad35c7ed2784f4fb57849237ce534f17e}{{2.3.2.6}{9}{\texorpdfstring {cp}{cp}}{subsubsection.2.3.2.6}{}}
\@writefile{toc}{\contentsline {subsubsection}{\numberline {2.3.2.7}cs}{9}{subsubsection.2.3.2.7}}
\newlabel{prueba_8c_a806cf9a0179a86466d9044bd03eb13eb}{{2.3.2.7}{9}{\texorpdfstring {cs}{cs}}{subsubsection.2.3.2.7}{}}
\@writefile{toc}{\contentsline {subsubsection}{\numberline {2.3.2.8}D\discretionary {\unhbox \voidb@x \hbox {\relax \fontsize  {7}{8}\selectfont  $\leftarrow \joinrel  \rhook $}}{}{}E\discretionary {\unhbox \voidb@x \hbox {\relax \fontsize  {7}{8}\selectfont  $\leftarrow \joinrel  \rhook $}}{}{}R\discretionary {\unhbox \voidb@x \hbox {\relax \fontsize  {7}{8}\selectfont  $\leftarrow \joinrel  \rhook $}}{}{}E\discretionary {\unhbox \voidb@x \hbox {\relax \fontsize  {7}{8}\selectfont  $\leftarrow \joinrel  \rhook $}}{}{}C\discretionary {\unhbox \voidb@x \hbox {\relax \fontsize  {7}{8}\selectfont  $\leftarrow \joinrel  \rhook $}}{}{}HA}{9}{subsubsection.2.3.2.8}}
\newlabel{prueba_8c_a4ec0c6b71dee611d95f32ba5cfd41d87}{{2.3.2.8}{9}{\texorpdfstring {D\+E\+R\+E\+C\+HA}{DERECHA}}{subsubsection.2.3.2.8}{}}
\@writefile{toc}{\contentsline {subsubsection}{\numberline {2.3.2.9}derecha}{9}{subsubsection.2.3.2.9}}
\newlabel{prueba_8c_aaecb2a12e5578dda3a3722bed5579ac8}{{2.3.2.9}{9}{\texorpdfstring {derecha}{derecha}}{subsubsection.2.3.2.9}{}}
\@writefile{toc}{\contentsline {subsubsection}{\numberline {2.3.2.10}direccion}{10}{subsubsection.2.3.2.10}}
\newlabel{prueba_8c_a362077c979b0bb65159c603270e40f70}{{2.3.2.10}{10}{\texorpdfstring {direccion}{direccion}}{subsubsection.2.3.2.10}{}}
\@writefile{toc}{\contentsline {subsubsection}{\numberline {2.3.2.11}f}{10}{subsubsection.2.3.2.11}}
\newlabel{prueba_8c_a5c82fa58c263d40b70b737c5efa07ef0}{{2.3.2.11}{10}{\texorpdfstring {f}{f}}{subsubsection.2.3.2.11}{}}
\@writefile{toc}{\contentsline {subsubsection}{\numberline {2.3.2.12}fp}{10}{subsubsection.2.3.2.12}}
\newlabel{prueba_8c_a93937b9d02e7154b3ab19a503b23703c}{{2.3.2.12}{10}{\texorpdfstring {fp}{fp}}{subsubsection.2.3.2.12}{}}
\@writefile{toc}{\contentsline {subsubsection}{\numberline {2.3.2.13}fs}{10}{subsubsection.2.3.2.13}}
\newlabel{prueba_8c_a8984334006564c25b63401313c9d5d3b}{{2.3.2.13}{10}{\texorpdfstring {fs}{fs}}{subsubsection.2.3.2.13}{}}
\@writefile{toc}{\contentsline {subsubsection}{\numberline {2.3.2.14}I\discretionary {\unhbox \voidb@x \hbox {\relax \fontsize  {7}{8}\selectfont  $\leftarrow \joinrel  \rhook $}}{}{}Z\discretionary {\unhbox \voidb@x \hbox {\relax \fontsize  {7}{8}\selectfont  $\leftarrow \joinrel  \rhook $}}{}{}Q\discretionary {\unhbox \voidb@x \hbox {\relax \fontsize  {7}{8}\selectfont  $\leftarrow \joinrel  \rhook $}}{}{}U\discretionary {\unhbox \voidb@x \hbox {\relax \fontsize  {7}{8}\selectfont  $\leftarrow \joinrel  \rhook $}}{}{}I\discretionary {\unhbox \voidb@x \hbox {\relax \fontsize  {7}{8}\selectfont  $\leftarrow \joinrel  \rhook $}}{}{}E\discretionary {\unhbox \voidb@x \hbox {\relax \fontsize  {7}{8}\selectfont  $\leftarrow \joinrel  \rhook $}}{}{}R\discretionary {\unhbox \voidb@x \hbox {\relax \fontsize  {7}{8}\selectfont  $\leftarrow \joinrel  \rhook $}}{}{}DA}{10}{subsubsection.2.3.2.14}}
\newlabel{prueba_8c_ab874e69ecdf33b6b453dc26e97374bf9}{{2.3.2.14}{10}{\texorpdfstring {I\+Z\+Q\+U\+I\+E\+R\+DA}{IZQUIERDA}}{subsubsection.2.3.2.14}{}}
\@writefile{toc}{\contentsline {subsubsection}{\numberline {2.3.2.15}izquierda}{10}{subsubsection.2.3.2.15}}
\newlabel{prueba_8c_a08e135cd1ce03cdb0ceb5c82093ebee5}{{2.3.2.15}{10}{\texorpdfstring {izquierda}{izquierda}}{subsubsection.2.3.2.15}{}}
\@writefile{toc}{\contentsline {subsubsection}{\numberline {2.3.2.16}m}{10}{subsubsection.2.3.2.16}}
\@writefile{toc}{\contentsline {chapter}{Index}{11}{section*.5}}
